{
    "rare": [
      {
        "minAmount": 1,
        "weight": 50,
        "id": 10362,
        "maxAmount": 1
      },
      {
        "minAmount": 1,
        "weight": 30,
        "id": 3486,
        "maxAmount": 1
      },
      {
        "minAmount": 1,
        "weight": 30,
        "id": 3481,
        "maxAmount": 1
      },
      {
        "minAmount": 1,
        "weight": 30,
        "id": 3483,
        "maxAmount": 1
      },
      {
        "minAmount": 1,
        "weight": 30,
        "id": 3485,
        "maxAmount": 1
      },
      {
        "minAmount": 1,
        "weight": 30,
        "id": 3488,
        "maxAmount": 1
      },
      {
        "minAmount": 1,
        "weight": 10,
        "id": 10330,
        "maxAmount": 1
      },
      {
        "minAmount": 1,
        "weight": 10,
        "id": 10332,
        "maxAmount": 1
      },
      {
        "minAmount": 1,
        "weight": 10,
        "id": 10334,
        "maxAmount": 1
      },
      {
        "minAmount": 1,
        "weight": 10,
        "id": 10336,
        "maxAmount": 1
      },
      {
        "minAmount": 1,
        "weight": 10,
        "id": 10338,
        "maxAmount": 1
      },
      {
        "minAmount": 1,
        "weight": 10,
        "id": 10340,
        "maxAmount": 1
      },
      {
        "minAmount": 1,
        "weight": 10,
        "id": 10342,
        "maxAmount": 1
      },
      {
        "minAmount": 1,
        "weight": 10,
        "id": 10344,
        "maxAmount": 1
      },
      {
        "minAmount": 1,
        "weight": 10,
        "id": 10346,
        "maxAmount": 1
      },
      {
        "minAmount": 1,
        "weight": 10,
        "id": 10348,
        "maxAmount": 1
      },
      {
        "minAmount": 1,
        "weight": 10,
        "id": 10350,
        "maxAmount": 1
      },
      {
        "minAmount": 1,
        "weight": 10,
        "id": 10352,
        "maxAmount": 1
      }
    ],
    "medium": [
      {
        "minAmount": 1,
        "weight": "5",
        "id": 2605,
        "maxAmount": 1
      },
      {
        "minAmount": 1,
        "weight": "5",
        "id": 14706,
        "maxAmount": 1
      },
      {
        "minAmount": 1,
        "weight": "5",
        "id": 14700,
        "maxAmount": 1
      },
      {
        "minAmount": 1,
        "weight": "5",
        "id": 14702,
        "maxAmount": 1
      },
      {
        "minAmount": 1,
        "weight": "5",
        "id": 14704,
        "maxAmount": 1
      },
      {
        "minAmount": 1,
        "weight": "5",
        "id": 14708,
        "maxAmount": 1
      },
      {
        "minAmount": 1,
        "weight": "5",
        "id": 14710,
        "maxAmount": 1
      },
      {
        "minAmount": 1,
        "weight": "5",
        "id": 14712,
        "maxAmount": 1
      },
      {
        "minAmount": 1,
        "weight": "5",
        "id": 2599,
        "maxAmount": 1
      },
      {
        "minAmount": 1,
        "weight": "5",
        "id": 2601,
        "maxAmount": 1
      },
      {
        "minAmount": 1,
        "weight": "5",
        "id": 2603,
        "maxAmount": 1
      },
      {
        "minAmount": 1,
        "weight": "5",
        "id": 3474,
        "maxAmount": 1
      },
      {
        "minAmount": 1,
        "weight": "5",
        "id": 2613,
        "maxAmount": 1
      },
      {
        "minAmount": 1,
        "weight": "5",
        "id": 2607,
        "maxAmount": 1
      },
      {
        "minAmount": 1,
        "weight": "5",
        "id": 2609,
        "maxAmount": 1
      },
      {
        "minAmount": 1,
        "weight": "5",
        "id": 3475,
        "maxAmount": 1
      },
      {
        "minAmount": 1,
        "weight": "5",
        "id": 2611,
        "maxAmount": 1
      },
      {
        "minAmount": 1,
        "weight": "5",
        "id": 2647,
        "maxAmount": 1
      },
      {
        "minAmount": 1,
        "weight": "5",
        "id": 2645,
        "maxAmount": 1
      },
      {
        "minAmount": 1,
        "weight": "5",
        "id": 2649,
        "maxAmount": 1
      },
      {
        "minAmount": 1,
        "weight": "5",
        "id": 2577,
        "maxAmount": 1
      },
      {
        "minAmount": 1,
        "weight": "5",
        "id": 2579,
        "maxAmount": 1
      },
      {
        "minAmount": 1,
        "weight": "5",
        "id": 7319,
        "maxAmount": 1
      },
      {
        "minAmount": 1,
        "weight": "5",
        "id": 7321,
        "maxAmount": 1
      },
      {
        "minAmount": 1,
        "weight": "5",
        "id": 7323,
        "maxAmount": 1
      },
      {
        "minAmount": 1,
        "weight": "5",
        "id": 7325,
        "maxAmount": 1
      },
      {
        "minAmount": 1,
        "weight": "5",
        "id": 7327,
        "maxAmount": 1
      },
      {
        "minAmount": 1,
        "weight": "5",
        "id": 7372,
        "maxAmount": 1
      },
      {
        "minAmount": 1,
        "weight": "5",
        "id": 7380,
        "maxAmount": 1
      },
      {
        "minAmount": 1,
        "weight": "5",
        "id": 7370,
        "maxAmount": 1
      },
      {
        "minAmount": 1,
        "weight": "5",
        "id": 7378,
        "maxAmount": 1
      },
      {
        "minAmount": 1,
        "weight": "5",
        "id": 13103,
        "maxAmount": 1
      },
      {
        "minAmount": 1,
        "weight": "5",
        "id": 13097,
        "maxAmount": 1
      },
      {
        "minAmount": 1,
        "weight": "5",
        "id": 10282,
        "maxAmount": 1
      },
      {
        "minAmount": 1,
        "weight": "5",
        "id": 13109,
        "maxAmount": 1
      },
      {
        "minAmount": 1,
        "weight": "5",
        "id": 13107,
        "maxAmount": 1
      },
      {
        "minAmount": 1,
        "weight": "5",
        "id": 13111,
        "maxAmount": 1
      },
      {
        "minAmount": 1,
        "weight": "5",
        "id": 13113,
        "maxAmount": 1
      },
      {
        "minAmount": 1,
        "weight": "5",
        "id": 13115,
        "maxAmount": 1
      },
      {
        "minAmount": 1,
        "weight": "5",
        "id": 10364,
        "maxAmount": 1
      },
      {
        "minAmount": 1,
        "weight": "5",
        "id": 10420,
        "maxAmount": 1
      },
      {
        "minAmount": 1,
        "weight": "5",
        "id": 10422,
        "maxAmount": 1
      },
      {
        "minAmount": 1,
        "weight": "5",
        "id": 10400,
        "maxAmount": 1
      },
      {
        "minAmount": 1,
        "weight": "5",
        "id": 10402,
        "maxAmount": 1
      },
      {
        "minAmount": 1,
        "weight": "5",
        "id": 10416,
        "maxAmount": 1
      },
      {
        "minAmount": 1,
        "weight": "5",
        "id": 10418,
        "maxAmount": 1
      },
      {
        "minAmount": 1,
        "weight": "5",
        "id": 10436,
        "maxAmount": 1
      },
      {
        "minAmount": 1,
        "weight": "5",
        "id": 10438,
        "maxAmount": 1
      },
      {
        "minAmount": 1,
        "weight": "5",
        "id": 10296,
        "maxAmount": 1
      },
      {
        "minAmount": 1,
        "weight": "5",
        "id": 10298,
        "maxAmount": 1
      },
      {
        "minAmount": 1,
        "weight": "5",
        "id": 10300,
        "maxAmount": 1
      },
      {
        "minAmount": 1,
        "weight": "5",
        "id": 10302,
        "maxAmount": 1
      },
      {
        "minAmount": 1,
        "weight": "5",
        "id": 10304,
        "maxAmount": 1
      },
      {
        "minAmount": 1,
        "weight": "5",
        "id": 10666,
        "maxAmount": 1
      },
      {
        "minAmount": 1,
        "weight": "5",
        "id": 10669,
        "maxAmount": 1
      },
      {
        "minAmount": 1,
        "weight": "5",
        "id": 10672,
        "maxAmount": 1
      },
      {
        "minAmount": 1,
        "weight": "5",
        "id": 10675,
        "maxAmount": 1
      },
      {
        "minAmount": 1,
        "weight": "5",
        "id": 10678,
        "maxAmount": 1
      },
      {
        "minAmount": 1,
        "weight": "5",
        "id": 10446,
        "maxAmount": 1
      },
      {
        "minAmount": 1,
        "weight": "5",
        "id": 10448,
        "maxAmount": 1
      },
      {
        "minAmount": 1,
        "weight": "5",
        "id": 10450,
        "maxAmount": 1
      },
      {
        "minAmount": 1,
        "weight": "5",
        "id": 10452,
        "maxAmount": 1
      },
      {
        "minAmount": 1,
        "weight": "5",
        "id": 10454,
        "maxAmount": 1
      },
      {
        "minAmount": 1,
        "weight": "5",
        "id": 10456,
        "maxAmount": 1
      },
      {
        "minAmount": 1,
        "weight": "5",
        "id": 1161,
        "maxAmount": 1
      },
      {
        "minAmount": 1,
        "weight": "5",
        "id": 1123,
        "maxAmount": 1
      },
      {
        "minAmount": 1,
        "weight": "5",
        "id": 1073,
        "maxAmount": 1
      },
      {
        "minAmount": 1,
        "weight": "5",
        "id": 1091,
        "maxAmount": 1
      },
      {
        "minAmount": 1,
        "weight": "5",
        "id": 1199,
        "maxAmount": 1
      },
      {
        "minAmount": 1,
        "weight": "5",
        "id": 1183,
        "maxAmount": 1
      },
      {
        "minAmount": 1,
        "weight": "5",
        "id": 1111,
        "maxAmount": 1
      },
      {
        "minAmount": 1,
        "weight": "5",
        "id": 1211,
        "maxAmount": 1
      },
      {
        "minAmount": 1,
        "weight": "5",
        "id": 1271,
        "maxAmount": 1
      },
      {
        "minAmount": 1,
        "weight": "5",
        "id": 1287,
        "maxAmount": 1
      },
      {
        "minAmount": 1,
        "weight": "5",
        "id": 1301,
        "maxAmount": 1
      },
      {
        "minAmount": 1,
        "weight": "5",
        "id": 1317,
        "maxAmount": 1
      },
      {
        "minAmount": 1,
        "weight": "5",
        "id": 1357,
        "maxAmount": 1
      },
      {
        "minAmount": 1,
        "weight": "5",
        "id": 1371,
        "maxAmount": 1
      },
      {
        "minAmount": 1,
        "weight": "5",
        "id": 1430,
        "maxAmount": 1
      },
      {
        "minAmount": 10,
        "weight": "5",
        "id": 4823,
        "maxAmount": 40
      },
      {
        "minAmount": 1,
        "weight": "5",
        "id": 9183,
        "maxAmount": 1
      },
      {
        "minAmount": 1,
        "weight": "5",
        "id": 1393,
        "maxAmount": 1
      },
      {
        "minAmount": 1,
        "weight": "5",
        "id": 1099,
        "maxAmount": 1
      },
      {
        "minAmount": 1,
        "weight": "5",
        "id": 1135,
        "maxAmount": 1
      },
      {
        "minAmount": 1,
        "weight": "5",
        "id": 857,
        "maxAmount": 1
      },
      {
        "minAmount": 10,
        "weight": "5",
        "id": 8781,
        "maxAmount": 43
      },
      {
        "minAmount": 6,
        "weight": "5",
        "id": 374,
        "maxAmount": 23
      },
      {
        "minAmount": 15,
        "weight": "5",
        "id": 380,
        "maxAmount": 43
      },
      {
        "minAmount": 500,
        "weight": "5",
        "id": 995,
        "maxAmount": 7000
      },
      {
        "minAmount": 15,
        "weight": "5",
        "id": 10326,
        "maxAmount": 40
      },
      {
        "minAmount": 15,
        "weight": "5",
        "id": 7329,
        "maxAmount": 40
      },
      {
        "minAmount": 15,
        "weight": "5",
        "id": 7331,
        "maxAmount": 40
      },
      {
        "minAmount": 15,
        "weight": "5",
        "id": 7330,
        "maxAmount": 40
      },
      {
        "minAmount": 15,
        "weight": "5",
        "id": 10327,
        "maxAmount": 40
      },
      {
        "minAmount": 1,
        "weight": "5",
        "id": 10476,
        "maxAmount": 27
      },
      {
        "minAmount": 1,
        "weight": "5",
        "id": 556,
        "maxAmount": 228
      },
      {
        "minAmount": 1,
        "weight": "5",
        "id": 554,
        "maxAmount": 228
      },
      {
        "minAmount": 1,
        "weight": "5",
        "id": 557,
        "maxAmount": 228
      },
      {
        "minAmount": 1,
        "weight": "5",
        "id": 555,
        "maxAmount": 228
      },
      {
        "minAmount": 1,
        "weight": "5",
        "id": 3827,
        "maxAmount": 1
      },
      {
        "minAmount": 1,
        "weight": "5",
        "id": 3828,
        "maxAmount": 1
      },
      {
        "minAmount": 1,
        "weight": "5",
        "id": 3829,
        "maxAmount": 1
      },
      {
        "minAmount": 1,
        "weight": "5",
        "id": 3830,
        "maxAmount": 1
      },
      {
        "minAmount": 1,
        "weight": "5",
        "id": 3831,
        "maxAmount": 1
      },
      {
        "minAmount": 1,
        "weight": "5",
        "id": 3832,
        "maxAmount": 1
      },
      {
        "minAmount": 1,
        "weight": "5",
        "id": 3833,
        "maxAmount": 1
      },
      {
        "minAmount": 1,
        "weight": "5",
        "id": 3834,
        "maxAmount": 1
      },
      {
        "minAmount": 1,
        "weight": "5",
        "id": 3835,
        "maxAmount": 1
      },
      {
        "minAmount": 1,
        "weight": "5",
        "id": 3836,
        "maxAmount": 1
      },
      {
        "minAmount": 1,
        "weight": "5",
        "id": 3837,
        "maxAmount": 1
      },
      {
        "minAmount": 1,
        "weight": "5",
        "id": 3838,
        "maxAmount": 1
      }
    ],
    "hard": [
      {
        "minAmount": 1,
        "weight": "5",
        "id": 10284,
        "maxAmount": 1
      },
      {
        "minAmount": 1,
        "weight": "5",
        "id": 13101,
        "maxAmount": 1
      },
      {
        "minAmount": 1,
        "weight": "5",
        "id": 13099,
        "maxAmount": 1
      },
      {
        "minAmount": 1,
        "weight": "5",
        "id": 10470,
        "maxAmount": 1
      },
      {
        "minAmount": 1,
        "weight": "5",
        "id": 10472,
        "maxAmount": 1
      },
      {
        "minAmount": 1,
        "weight": "5",
        "id": 10474,
        "maxAmount": 1
      },
      {
        "minAmount": 1,
        "weight": "5",
        "id": 10440,
        "maxAmount": 1
      },
      {
        "minAmount": 1,
        "weight": "5",
        "id": 10442,
        "maxAmount": 1
      },
      {
        "minAmount": 1,
        "weight": "5",
        "id": 10444,
        "maxAmount": 1
      },
      {
        "minAmount": 1,
        "weight": "5",
        "id": 2627,
        "maxAmount": 1
      },
      {
        "minAmount": 1,
        "weight": "5",
        "id": 2623,
        "maxAmount": 1
      },
      {
        "minAmount": 1,
        "weight": "5",
        "id": 2625,
        "maxAmount": 1
      },
      {
        "minAmount": 1,
        "weight": "5",
        "id": 3477,
        "maxAmount": 1
      },
      {
        "minAmount": 1,
        "weight": "5",
        "id": 2629,
        "maxAmount": 1
      },
      {
        "minAmount": 1,
        "weight": "5",
        "id": 2619,
        "maxAmount": 1
      },
      {
        "minAmount": 1,
        "weight": "5",
        "id": 2615,
        "maxAmount": 1
      },
      {
        "minAmount": 1,
        "weight": "5",
        "id": 2617,
        "maxAmount": 1
      },
      {
        "minAmount": 1,
        "weight": "5",
        "id": 3476,
        "maxAmount": 1
      },
      {
        "minAmount": 1,
        "weight": "5",
        "id": 2621,
        "maxAmount": 1
      },
      {
        "minAmount": 1,
        "weight": "5",
        "id": 2673,
        "maxAmount": 1
      },
      {
        "minAmount": 1,
        "weight": "5",
        "id": 2669,
        "maxAmount": 1
      },
      {
        "minAmount": 1,
        "weight": "5",
        "id": 2671,
        "maxAmount": 1
      },
      {
        "minAmount": 1,
        "weight": "5",
        "id": 3480,
        "maxAmount": 1
      },
      {
        "minAmount": 1,
        "weight": "5",
        "id": 2675,
        "maxAmount": 1
      },
      {
        "minAmount": 1,
        "weight": "5",
        "id": 2657,
        "maxAmount": 1
      },
      {
        "minAmount": 1,
        "weight": "5",
        "id": 2653,
        "maxAmount": 1
      },
      {
        "minAmount": 1,
        "weight": "5",
        "id": 2655,
        "maxAmount": 1
      },
      {
        "minAmount": 1,
        "weight": "5",
        "id": 3478,
        "maxAmount": 1
      },
      {
        "minAmount": 1,
        "weight": "5",
        "id": 2659,
        "maxAmount": 1
      },
      {
        "minAmount": 1,
        "weight": "5",
        "id": 2665,
        "maxAmount": 1
      },
      {
        "minAmount": 1,
        "weight": "5",
        "id": 2661,
        "maxAmount": 1
      },
      {
        "minAmount": 1,
        "weight": "5",
        "id": 2663,
        "maxAmount": 1
      },
      {
        "minAmount": 1,
        "weight": "5",
        "id": 3479,
        "maxAmount": 1
      },
      {
        "minAmount": 1,
        "weight": "5",
        "id": 2667,
        "maxAmount": 1
      },
      {
        "minAmount": 1,
        "weight": "5",
        "id": 10286,
        "maxAmount": 1
      },
      {
        "minAmount": 1,
        "weight": "5",
        "id": 10667,
        "maxAmount": 1
      },
      {
        "minAmount": 1,
        "weight": "5",
        "id": 10288,
        "maxAmount": 1
      },
      {
        "minAmount": 1,
        "weight": "5",
        "id": 10670,
        "maxAmount": 1
      },
      {
        "minAmount": 1,
        "weight": "5",
        "id": 10290,
        "maxAmount": 1
      },
      {
        "minAmount": 1,
        "weight": "5",
        "id": 10673,
        "maxAmount": 1
      },
      {
        "minAmount": 1,
        "weight": "5",
        "id": 10292,
        "maxAmount": 1
      },
      {
        "minAmount": 1,
        "weight": "5",
        "id": 10676,
        "maxAmount": 1
      },
      {
        "minAmount": 1,
        "weight": "5",
        "id": 10294,
        "maxAmount": 1
      },
      {
        "minAmount": 1,
        "weight": "5",
        "id": 10679,
        "maxAmount": 1
      },
      {
        "minAmount": 1,
        "weight": "5",
        "id": 7376,
        "maxAmount": 1
      },
      {
        "minAmount": 1,
        "weight": "5",
        "id": 7384,
        "maxAmount": 1
      },
      {
        "minAmount": 1,
        "weight": "5",
        "id": 7374,
        "maxAmount": 1
      },
      {
        "minAmount": 1,
        "weight": "5",
        "id": 7382,
        "maxAmount": 1
      },
      {
        "minAmount": 1,
        "weight": "5",
        "id": 10374,
        "maxAmount": 1
      },
      {
        "minAmount": 1,
        "weight": "5",
        "id": 10368,
        "maxAmount": 1
      },
      {
        "minAmount": 1,
        "weight": "5",
        "id": 10370,
        "maxAmount": 1
      },
      {
        "minAmount": 1,
        "weight": "5",
        "id": 10372,
        "maxAmount": 1
      },
      {
        "minAmount": 1,
        "weight": "5",
        "id": 10382,
        "maxAmount": 1
      },
      {
        "minAmount": 1,
        "weight": "5",
        "id": 10376,
        "maxAmount": 1
      },
      {
        "minAmount": 1,
        "weight": "5",
        "id": 10378,
        "maxAmount": 1
      },
      {
        "minAmount": 1,
        "weight": "5",
        "id": 10380,
        "maxAmount": 1
      },
      {
        "minAmount": 1,
        "weight": "5",
        "id": 10390,
        "maxAmount": 1
      },
      {
        "minAmount": 1,
        "weight": "5",
        "id": 10384,
        "maxAmount": 1
      },
      {
        "minAmount": 1,
        "weight": "5",
        "id": 10386,
        "maxAmount": 1
      },
      {
        "minAmount": 1,
        "weight": "5",
        "id": 10388,
        "maxAmount": 1
      },
      {
        "minAmount": 1,
        "weight": "5",
        "id": 2651,
        "maxAmount": 1
      },
      {
        "minAmount": 1,
        "weight": "5",
        "id": 2581,
        "maxAmount": 1
      },
      {
        "minAmount": 1,
        "weight": "5",
        "id": 2639,
        "maxAmount": 1
      },
      {
        "minAmount": 1,
        "weight": "5",
        "id": 2641,
        "maxAmount": 1
      },
      {
        "minAmount": 1,
        "weight": "5",
        "id": 2643,
        "maxAmount": 1
      },
      {
        "minAmount": 1,
        "weight": "5",
        "id": 1163,
        "maxAmount": 1
      },
      {
        "minAmount": 1,
        "weight": "5",
        "id": 1127,
        "maxAmount": 1
      },
      {
        "minAmount": 1,
        "weight": "5",
        "id": 1079,
        "maxAmount": 1
      },
      {
        "minAmount": 1,
        "weight": "5",
        "id": 1093,
        "maxAmount": 1
      },
      {
        "minAmount": 1,
        "weight": "5",
        "id": 1201,
        "maxAmount": 1
      },
      {
        "minAmount": 1,
        "weight": "5",
        "id": 1185,
        "maxAmount": 1
      },
      {
        "minAmount": 1,
        "weight": "5",
        "id": 1213,
        "maxAmount": 1
      },
      {
        "minAmount": 1,
        "weight": "5",
        "id": 1275,
        "maxAmount": 1
      },
      {
        "minAmount": 1,
        "weight": "5",
        "id": 1289,
        "maxAmount": 1
      },
      {
        "minAmount": 1,
        "weight": "5",
        "id": 1303,
        "maxAmount": 1
      },
      {
        "minAmount": 1,
        "weight": "5",
        "id": 1319,
        "maxAmount": 1
      },
      {
        "minAmount": 1,
        "weight": "5",
        "id": 1359,
        "maxAmount": 1
      },
      {
        "minAmount": 1,
        "weight": "5",
        "id": 1373,
        "maxAmount": 1
      },
      {
        "minAmount": 1,
        "weight": "5",
        "id": 1432,
        "maxAmount": 1
      },
      {
        "minAmount": 10,
        "weight": "5",
        "id": 4824,
        "maxAmount": 43
      },
      {
        "minAmount": 6,
        "weight": "5",
        "id": 9144,
        "maxAmount": 23
      },
      {
        "minAmount": 1,
        "weight": "5",
        "id": 9185,
        "maxAmount": 1
      },
      {
        "minAmount": 1,
        "weight": "5",
        "id": 2497,
        "maxAmount": 1
      },
      {
        "minAmount": 1,
        "weight": "5",
        "id": 2503,
        "maxAmount": 1
      },
      {
        "minAmount": 1,
        "weight": "5",
        "id": 861,
        "maxAmount": 2
      },
      {
        "minAmount": 1,
        "weight": "5",
        "id": 859,
        "maxAmount": 2
      },
      {
        "minAmount": 6,
        "weight": "5",
        "id": 8783,
        "maxAmount": 27
      },
      {
        "minAmount": 16,
        "weight": "5",
        "id": 380,
        "maxAmount": 38
      },
      {
        "minAmount": 7,
        "weight": "5",
        "id": 386,
        "maxAmount": 32
      },
      {
        "minAmount": 1,
        "weight": "5",
        "id": 7398,
        "maxAmount": 1
      },
      {
        "minAmount": 1,
        "weight": "5",
        "id": 7399,
        "maxAmount": 1
      },
      {
        "minAmount": 1,
        "weight": "5",
        "id": 7400,
        "maxAmount": 1
      },
      {
        "minAmount": 500,
        "weight": "5",
        "id": 995,
        "maxAmount": 7000
      },
      {
        "minAmount": 15,
        "weight": "5",
        "id": 10326,
        "maxAmount": 40
      },
      {
        "minAmount": 15,
        "weight": "5",
        "id": 7329,
        "maxAmount": 40
      },
      {
        "minAmount": 15,
        "weight": "5",
        "id": 7331,
        "maxAmount": 40
      },
      {
        "minAmount": 15,
        "weight": "5",
        "id": 7330,
        "maxAmount": 40
      },
      {
        "minAmount": 15,
        "weight": "5",
        "id": 10327,
        "maxAmount": 40
      },
      {
        "minAmount": 1,
        "weight": "5",
        "id": 10476,
        "maxAmount": 27
      },
      {
        "minAmount": 1,
        "weight": "5",
        "id": 556,
        "maxAmount": 228
      },
      {
        "minAmount": 1,
        "weight": "5",
        "id": 554,
        "maxAmount": 228
      },
      {
        "minAmount": 1,
        "weight": "5",
        "id": 557,
        "maxAmount": 228
      },
      {
        "minAmount": 1,
        "weight": "5",
        "id": 555,
        "maxAmount": 228
      },
      {
        "minAmount": 1,
        "weight": "5",
        "id": 3827,
        "maxAmount": 1
      },
      {
        "minAmount": 1,
        "weight": "5",
        "id": 3828,
        "maxAmount": 1
      },
      {
        "minAmount": 1,
        "weight": "5",
        "id": 3829,
        "maxAmount": 1
      },
      {
        "minAmount": 1,
        "weight": "5",
        "id": 3830,
        "maxAmount": 1
      },
      {
        "minAmount": 1,
        "weight": "5",
        "id": 3831,
        "maxAmount": 1
      },
      {
        "minAmount": 1,
        "weight": "5",
        "id": 3832,
        "maxAmount": 1
      },
      {
        "minAmount": 1,
        "weight": "5",
        "id": 3833,
        "maxAmount": 1
      },
      {
        "minAmount": 1,
        "weight": "5",
        "id": 3834,
        "maxAmount": 1
      },
      {
        "minAmount": 1,
        "weight": "5",
        "id": 3835,
        "maxAmount": 1
      },
      {
        "minAmount": 1,
        "weight": "5",
        "id": 3836,
        "maxAmount": 1
      },
      {
        "minAmount": 1,
        "weight": "5",
        "id": 3837,
        "maxAmount": 1
      },
      {
        "minAmount": 1,
        "weight": "5",
        "id": 3838,
        "maxAmount": 1
      }
    ],
    "easy": [
      {
        "minAmount": 1,
        "weight": "5",
        "id": 14664,
        "maxAmount": 1
      },
      {
        "minAmount": 1,
        "weight": "5",
        "id": 14658,
        "maxAmount": 1
      },
      {
        "minAmount": 1,
        "weight": "5",
        "id": 14660,
        "maxAmount": 1
      },
      {
        "minAmount": 1,
        "weight": "5",
        "id": 14662,
        "maxAmount": 1
      },
      {
        "minAmount": 1,
        "weight": "5",
        "id": 14666,
        "maxAmount": 1
      },
      {
        "minAmount": 1,
        "weight": "5",
        "id": 14668,
        "maxAmount": 1
      },
      {
        "minAmount": 1,
        "weight": "5",
        "id": 14670,
        "maxAmount": 1
      },
      {
        "minAmount": 1,
        "weight": "5",
        "id": 14678,
        "maxAmount": 1
      },
      {
        "minAmount": 1,
        "weight": "5",
        "id": 14672,
        "maxAmount": 1
      },
      {
        "minAmount": 1,
        "weight": "5",
        "id": 14674,
        "maxAmount": 1
      },
      {
        "minAmount": 1,
        "weight": "5",
        "id": 14676,
        "maxAmount": 1
      },
      {
        "minAmount": 1,
        "weight": "5",
        "id": 14680,
        "maxAmount": 1
      },
      {
        "minAmount": 1,
        "weight": "5",
        "id": 14682,
        "maxAmount": 1
      },
      {
        "minAmount": 1,
        "weight": "5",
        "id": 14684,
        "maxAmount": 1
      },
      {
        "minAmount": 1,
        "weight": "5",
        "id": 14692,
        "maxAmount": 1
      },
      {
        "minAmount": 1,
        "weight": "5",
        "id": 14686,
        "maxAmount": 1
      },
      {
        "minAmount": 1,
        "weight": "5",
        "id": 14688,
        "maxAmount": 1
      },
      {
        "minAmount": 1,
        "weight": "5",
        "id": 14690,
        "maxAmount": 1
      },
      {
        "minAmount": 1,
        "weight": "5",
        "id": 14694,
        "maxAmount": 1
      },
      {
        "minAmount": 1,
        "weight": "5",
        "id": 14696,
        "maxAmount": 1
      },
      {
        "minAmount": 1,
        "weight": "5",
        "id": 14698,
        "maxAmount": 1
      },
      {
        "minAmount": 1,
        "weight": "5",
        "id": 14775,
        "maxAmount": 1
      },
      {
        "minAmount": 1,
        "weight": "5",
        "id": 14759,
        "maxAmount": 1
      },
      {
        "minAmount": 1,
        "weight": "5",
        "id": 2633,
        "maxAmount": 1
      },
      {
        "minAmount": 1,
        "weight": "5",
        "id": 2635,
        "maxAmount": 1
      },
      {
        "minAmount": 1,
        "weight": "5",
        "id": 2637,
        "maxAmount": 1
      },
      {
        "minAmount": 1,
        "weight": "5",
        "id": 2587,
        "maxAmount": 1
      },
      {
        "minAmount": 1,
        "weight": "5",
        "id": 2583,
        "maxAmount": 1
      },
      {
        "minAmount": 1,
        "weight": "5",
        "id": 2585,
        "maxAmount": 1
      },
      {
        "minAmount": 1,
        "weight": "5",
        "id": 3472,
        "maxAmount": 1
      },
      {
        "minAmount": 1,
        "weight": "5",
        "id": 2589,
        "maxAmount": 1
      },
      {
        "minAmount": 1,
        "weight": "5",
        "id": 2595,
        "maxAmount": 1
      },
      {
        "minAmount": 1,
        "weight": "5",
        "id": 2591,
        "maxAmount": 1
      },
      {
        "minAmount": 1,
        "weight": "5",
        "id": 2593,
        "maxAmount": 1
      },
      {
        "minAmount": 1,
        "weight": "5",
        "id": 3473,
        "maxAmount": 1
      },
      {
        "minAmount": 1,
        "weight": "5",
        "id": 2597,
        "maxAmount": 1
      },
      {
        "minAmount": 1,
        "weight": "5",
        "id": 10306,
        "maxAmount": 1
      },
      {
        "minAmount": 1,
        "weight": "5",
        "id": 10308,
        "maxAmount": 1
      },
      {
        "minAmount": 1,
        "weight": "5",
        "id": 10310,
        "maxAmount": 1
      },
      {
        "minAmount": 1,
        "weight": "5",
        "id": 10312,
        "maxAmount": 1
      },
      {
        "minAmount": 1,
        "weight": "5",
        "id": 10314,
        "maxAmount": 1
      },
      {
        "minAmount": 1,
        "weight": "5",
        "id": 7332,
        "maxAmount": 1
      },
      {
        "minAmount": 1,
        "weight": "5",
        "id": 7338,
        "maxAmount": 1
      },
      {
        "minAmount": 1,
        "weight": "5",
        "id": 7344,
        "maxAmount": 1
      },
      {
        "minAmount": 1,
        "weight": "5",
        "id": 7350,
        "maxAmount": 1
      },
      {
        "minAmount": 1,
        "weight": "5",
        "id": 7356,
        "maxAmount": 1
      },
      {
        "minAmount": 1,
        "weight": "5",
        "id": 2631,
        "maxAmount": 1
      },
      {
        "minAmount": 1,
        "weight": "5",
        "id": 7392,
        "maxAmount": 1
      },
      {
        "minAmount": 1,
        "weight": "5",
        "id": 7396,
        "maxAmount": 1
      },
      {
        "minAmount": 1,
        "weight": "5",
        "id": 7388,
        "maxAmount": 1
      },
      {
        "minAmount": 1,
        "weight": "5",
        "id": 7390,
        "maxAmount": 1
      },
      {
        "minAmount": 1,
        "weight": "5",
        "id": 7386,
        "maxAmount": 1
      },
      {
        "minAmount": 1,
        "weight": "5",
        "id": 7394,
        "maxAmount": 1
      },
      {
        "minAmount": 1,
        "weight": "5",
        "id": 7362,
        "maxAmount": 1
      },
      {
        "minAmount": 1,
        "weight": "5",
        "id": 7366,
        "maxAmount": 1
      },
      {
        "minAmount": 1,
        "weight": "5",
        "id": 7364,
        "maxAmount": 1
      },
      {
        "minAmount": 1,
        "weight": "5",
        "id": 7368,
        "maxAmount": 1
      },
      {
        "minAmount": 1,
        "weight": "5",
        "id": 10404,
        "maxAmount": 1
      },
      {
        "minAmount": 1,
        "weight": "5",
        "id": 10406,
        "maxAmount": 1
      },
      {
        "minAmount": 1,
        "weight": "5",
        "id": 10424,
        "maxAmount": 1
      },
      {
        "minAmount": 1,
        "weight": "5",
        "id": 10426,
        "maxAmount": 1
      },
      {
        "minAmount": 1,
        "weight": "5",
        "id": 10408,
        "maxAmount": 1
      },
      {
        "minAmount": 1,
        "weight": "5",
        "id": 10410,
        "maxAmount": 1
      },
      {
        "minAmount": 1,
        "weight": "5",
        "id": 10428,
        "maxAmount": 1
      },
      {
        "minAmount": 1,
        "weight": "5",
        "id": 10430,
        "maxAmount": 1
      },
      {
        "minAmount": 1,
        "weight": "5",
        "id": 10412,
        "maxAmount": 1
      },
      {
        "minAmount": 1,
        "weight": "5",
        "id": 10414,
        "maxAmount": 1
      },
      {
        "minAmount": 1,
        "weight": "5",
        "id": 10432,
        "maxAmount": 1
      },
      {
        "minAmount": 1,
        "weight": "5",
        "id": 10434,
        "maxAmount": 1
      },
      {
        "minAmount": 1,
        "weight": "5",
        "id": 10316,
        "maxAmount": 1
      },
      {
        "minAmount": 1,
        "weight": "5",
        "id": 10318,
        "maxAmount": 1
      },
      {
        "minAmount": 1,
        "weight": "5",
        "id": 10320,
        "maxAmount": 1
      },
      {
        "minAmount": 1,
        "weight": "5",
        "id": 10322,
        "maxAmount": 1
      },
      {
        "minAmount": 1,
        "weight": "5",
        "id": 10324,
        "maxAmount": 1
      },
      {
        "minAmount": 1,
        "weight": "5",
        "id": 10392,
        "maxAmount": 1
      },
      {
        "minAmount": 1,
        "weight": "5",
        "id": 10394,
        "maxAmount": 1
      },
      {
        "minAmount": 1,
        "weight": "5",
        "id": 10396,
        "maxAmount": 1
      },
      {
        "minAmount": 1,
        "weight": "5",
        "id": 10398,
        "maxAmount": 1
      },
      {
        "minAmount": 1,
        "weight": "5",
        "id": 10366,
        "maxAmount": 1
      },
      {
        "minAmount": 1,
        "weight": "5",
        "id": 10458,
        "maxAmount": 1
      },
      {
        "minAmount": 1,
        "weight": "5",
        "id": 10464,
        "maxAmount": 1
      },
      {
        "minAmount": 1,
        "weight": "5",
        "id": 10462,
        "maxAmount": 1
      },
      {
        "minAmount": 1,
        "weight": "5",
        "id": 10466,
        "maxAmount": 1
      },
      {
        "minAmount": 1,
        "weight": "5",
        "id": 10460,
        "maxAmount": 1
      },
      {
        "minAmount": 1,
        "weight": "5",
        "id": 10468,
        "maxAmount": 1
      },
      {
        "minAmount": 1,
        "weight": "5",
        "id": 13095,
        "maxAmount": 1
      },
      {
        "minAmount": 1,
        "weight": "5",
        "id": 13105,
        "maxAmount": 1
      },
      {
        "minAmount": 1,
        "weight": "5",
        "id": 10280,
        "maxAmount": 1
      },
      {
        "minAmount": 1,
        "weight": "5",
        "id": 1077,
        "maxAmount": 1
      },
      {
        "minAmount": 1,
        "weight": "5",
        "id": 1089,
        "maxAmount": 1
      },
      {
        "minAmount": 1,
        "weight": "5",
        "id": 1107,
        "maxAmount": 1
      },
      {
        "minAmount": 1,
        "weight": "5",
        "id": 1125,
        "maxAmount": 1
      },
      {
        "minAmount": 1,
        "weight": "5",
        "id": 1151,
        "maxAmount": 1
      },
      {
        "minAmount": 1,
        "weight": "5",
        "id": 1165,
        "maxAmount": 1
      },
      {
        "minAmount": 1,
        "weight": "5",
        "id": 1179,
        "maxAmount": 1
      },
      {
        "minAmount": 1,
        "weight": "5",
        "id": 1195,
        "maxAmount": 1
      },
      {
        "minAmount": 1,
        "weight": "5",
        "id": 1217,
        "maxAmount": 1
      },
      {
        "minAmount": 1,
        "weight": "5",
        "id": 1283,
        "maxAmount": 1
      },
      {
        "minAmount": 1,
        "weight": "5",
        "id": 1297,
        "maxAmount": 1
      },
      {
        "minAmount": 1,
        "weight": "5",
        "id": 1313,
        "maxAmount": 1
      },
      {
        "minAmount": 1,
        "weight": "5",
        "id": 1327,
        "maxAmount": 1
      },
      {
        "minAmount": 1,
        "weight": "5",
        "id": 1341,
        "maxAmount": 1
      },
      {
        "minAmount": 1,
        "weight": "5",
        "id": 1361,
        "maxAmount": 1
      },
      {
        "minAmount": 1,
        "weight": "5",
        "id": 1367,
        "maxAmount": 1
      },
      {
        "minAmount": 1,
        "weight": "5",
        "id": 1426,
        "maxAmount": 1
      },
      {
        "minAmount": 1,
        "weight": "5",
        "id": 3098,
        "maxAmount": 1
      },
      {
        "minAmount": 1,
        "weight": "5",
        "id": 4821,
        "maxAmount": 1
      },
      {
        "minAmount": 4,
        "weight": "5",
        "id": 8779,
        "maxAmount": 38
      },
      {
        "minAmount": 1,
        "weight": "5",
        "id": 850,
        "maxAmount": 4
      },
      {
        "minAmount": 4,
        "weight": "5",
        "id": 334,
        "maxAmount": 19
      },
      {
        "minAmount": 1,
        "weight": "5",
        "id": 1169,
        "maxAmount": 1
      },
      {
        "minAmount": 1,
        "weight": "5",
        "id": 1059,
        "maxAmount": 1
      },
      {
        "minAmount": 1,
        "weight": "5",
        "id": 1061,
        "maxAmount": 1
      },
      {
        "minAmount": 1,
        "weight": "5",
        "id": 1063,
        "maxAmount": 1
      },
      {
        "minAmount": 1,
        "weight": "5",
        "id": 1095,
        "maxAmount": 1
      },
      {
        "minAmount": 1,
        "weight": "5",
        "id": 1129,
        "maxAmount": 1
      },
      {
        "minAmount": 1,
        "weight": "5",
        "id": 1167,
        "maxAmount": 1
      },
      {
        "minAmount": 1,
        "weight": "5",
        "id": 1131,
        "maxAmount": 1
      },
      {
        "minAmount": 1,
        "weight": "5",
        "id": 858,
        "maxAmount": 4
      },
      {
        "minAmount": 3,
        "weight": "5",
        "id": 330,
        "maxAmount": 23
      },
      {
        "minAmount": 1,
        "weight": "5",
        "id": 1441,
        "maxAmount": 3
      },
      {
        "minAmount": 1,
        "weight": "5",
        "id": 1443,
        "maxAmount": 3
      },
      {
        "minAmount": 1,
        "weight": "5",
        "id": 1270,
        "maxAmount": 3
      },
      {
        "minAmount": 1,
        "weight": "5",
        "id": 1097,
        "maxAmount": 1
      },
      {
        "minAmount": 1,
        "weight": "5",
        "id": 1133,
        "maxAmount": 1
      },
      {
        "minAmount": 500,
        "weight": "5",
        "id": 995,
        "maxAmount": 7000
      },
      {
        "minAmount": 15,
        "weight": "5",
        "id": 10326,
        "maxAmount": 40
      },
      {
        "minAmount": 15,
        "weight": "5",
        "id": 7329,
        "maxAmount": 40
      },
      {
        "minAmount": 15,
        "weight": "5",
        "id": 7331,
        "maxAmount": 40
      },
      {
        "minAmount": 15,
        "weight": "5",
        "id": 7330,
        "maxAmount": 40
      },
      {
        "minAmount": 15,
        "weight": "5",
        "id": 10327,
        "maxAmount": 40
      },
      {
        "minAmount": 1,
        "weight": "5",
        "id": 10476,
        "maxAmount": 27
      },
      {
        "minAmount": 1,
        "weight": "5",
        "id": 556,
        "maxAmount": 228
      },
      {
        "minAmount": 1,
        "weight": "5",
        "id": 554,
        "maxAmount": 228
      },
      {
        "minAmount": 1,
        "weight": "5",
        "id": 557,
        "maxAmount": 228
      },
      {
        "minAmount": 1,
        "weight": "5",
        "id": 555,
        "maxAmount": 228
      },
      {
        "minAmount": 1,
        "weight": "5",
        "id": 3827,
        "maxAmount": 1
      },
      {
        "minAmount": 1,
        "weight": "5",
        "id": 3828,
        "maxAmount": 1
      },
      {
        "minAmount": 1,
        "weight": "5",
        "id": 3829,
        "maxAmount": 1
      },
      {
        "minAmount": 1,
        "weight": "5",
        "id": 3830,
        "maxAmount": 1
      },
      {
        "minAmount": 1,
        "weight": "5",
        "id": 3831,
        "maxAmount": 1
      },
      {
        "minAmount": 1,
        "weight": "5",
        "id": 3832,
        "maxAmount": 1
      },
      {
        "minAmount": 1,
        "weight": "5",
        "id": 3833,
        "maxAmount": 1
      },
      {
        "minAmount": 1,
        "weight": "5",
        "id": 3834,
        "maxAmount": 1
      },
      {
        "minAmount": 1,
        "weight": "5",
        "id": 3835,
        "maxAmount": 1
      },
      {
        "minAmount": 1,
        "weight": "5",
        "id": 3836,
        "maxAmount": 1
      },
      {
        "minAmount": 1,
        "weight": "5",
        "id": 3837,
        "maxAmount": 1
      },
      {
        "minAmount": 1,
        "weight": "5",
        "id": 3838,
        "maxAmount": 1
      }
    ]
  }
  